…
    ## The following objects are masked from 'package:stats':
    ## 
    ##     filter, lag

    ## The following objects are masked from 'package:base':
    ## 
    ##     intersect, setdiff, setequal, union

    ssmean <- ll %>% group_by(db) %>% summarize(across(everything(),.fns = mean))
    ssmean <- ssmean[,-1]
    ssmean

    ## # A tibble: 132 × 16
    ##     lgbm   svm    rf    dt   knn   xgb   xrf  svml    lr ridge passive   lda
    ##    <dbl> <dbl> <dbl> <dbl> <dbl> <dbl> <dbl> <dbl> <dbl> <dbl>   <dbl> <dbl>
    ##  1 0.612 0.559 0.574 0.531 0.542 0.604 0.565 0.509 0.51  0.509   0.499 0.51 
    ##  2 0.554 0.514 0.559 0.524 0.533 0.579 0.539 0.513 0.512 0.513   0.505 0.514
    ##  3 0.718 0.624 0.646 0.577 0.556 0.712 0.649 0.498 0.501 0.499   0.492 0.498
    ##  4 0.658 0.636 0.622 0.559 0.562 0.642 0.643 0.484 0.484 0.485   0.505 0.484
    ##  5 0.685 0.614 0.638 0.547 0.551 0.659 0.629 0.499 0.499 0.501   0.507 0.499
    ##  6 0.555 0.515 0.550 0.551 0.525 0.542 0.525 0.729 0.692 0.698   0.574 0.680
    ##  7 0.573 0.515 0.585 0.575 0.559 0.603 0.536 0.703 0.661 0.669   0.587 0.677
    ##  8 1     0.989 1     1     0.998 1     0.997 0.949 0.950 0.944   0.935 0.944
    ##  9 0.973 0.957 0.974 0.964 0.965 0.972 0.973 0.936 0.962 0.962   0.959 0.964
    ## 10 0.989 0.973 0.981 0.977 0.976 0.987 0.982 0.973 0.974 0.973   0.972 0.951
    ## # ℹ 122 more rows
    ## # ℹ 4 more variables: qda <dbl>, nb <dbl>, gbm <dbl>, mlp <dbl>

The data is only a single measure for each algoritm (column) and for
each data set (implicitly each row). This format does not allow one to
use local ROPE (discussed below).

Finally the third format is a pair of data frames, one with the mean
measure for each data set and algorithm (the `ssmean` data frame above),
and one with the standard deviation of the measures. The second data
frame can be computed by:

    sssd <- ll %>% group_by(db) %>% summarize(across(everything(),.fns = sd))
    sssd <- sssd[,-1]
    sssd

    ## # A tibble: 132 × 16
    ##       lgbm      svm      rf      dt     knn     xgb     xrf     svml      lr
    ##      <dbl>    <dbl>   <dbl>   <dbl>   <dbl>   <dbl>   <dbl>    <dbl>   <dbl>
    ##  1 0.0244  0.0259   0.0250  0.0279  0.0174  0.0217  0.0195  0.0155   0.0157 
    ##  2 0.00921 0.0307   0.0333  0.0373  0.0209  0.0259  0.0295  0.0174   0.0154 
    ##  3 0.0151  0.0190   0.0179  0.0327  0.0454  0.0227  0.102   0.00826  0.0113 
    ##  4 0.0144  0.0178   0.0386  0.0283  0.0394  0.0195  0.00289 0.0273   0.0259 
    ##  5 0.0256  0.0236   0.0164  0.0159  0.0134  0.00777 0.0286  0.00315  0.00433
    ##  6 0.0337  0.0170   0.0182  0.0322  0.0273  0.0216  0.0135  0.0169   0.0102 
    ##  7 0.0357  0.0219   0.0202  0.0343  0.0240  0.0376  0.0296  0.0155   0.0224 
    ##  8 0       0.00249  0       0       0.00206 0       0.00244 0.00835  0.00261
    ##  9 0.00429 0.000530 0.00265 0.00508 0.00377 0.00401 0.00410 0.0474   0.00184
    ## 10 0.00329 0.000526 0.00252 0.00274 0.00235 0.00184 0.00150 0.000866 0.00219
    ## # ℹ 122 more rows
    ## # ℹ 7 more variables: ridge <dbl>, passive <dbl>, lda <dbl>, qda <dbl>,
    ## #   nb <dbl>, gbm <dbl>, mlp <dbl>
…
